…
    ## # A tibble: 4 x 2
    ##   search_query          n
    ##   <chr>             <int>
    ## 1 all jobs             45
    ## 2 data engineer        92
    ## 3 data scientist        9
    ## 4 software engineer   226

``` r
df %>%
    count(job_title_cleaned) %>%
    arrange(desc(n))
```

    ## # A tibble: 69 x 2
    ##    job_title_cleaned        n
    ##    <fct>                <int>
    ##  1 Software Engineer       71
    ##  2 System Engineer         56
    ##  3 Software Developer      17
    ##  4 Data Engineer           13
    ##  5 DevOps Engineer         12
    ##  6 Softwareentwickler      11
    ##  7 Application Engineer    10
    ##  8 Security Engineer       10
    ##  9 Systems Engineer        10
    ## 10 Automation Engineer      9
    ## # i 59 more rows
…
