…
## # A tibble: 4 x 2
##   search_query          n
##   <chr>             <int>
## 1 all jobs             50
## 2 data engineer       109
## 3 data scientist       15
## 4 software engineer   339

df %>%
    count(job_title_cleaned) %>%
    arrange(desc(n))

## # A tibble: 77 x 2
##    job_title_cleaned           n
##    <fct>                   <int>
##  1 Software Engineer         103
##  2 System Engineer            64
##  3 Data Engineer              53
##  4 Software Developer         19
##  5 Application Engineer       15
##  6 DevOps Engineer            14
##  7 Software Entwickler        13
##  8 Wirtschaftsinformatiker    13
##  9 Data Scientist             12
## 10 Softwareentwickler         12
## # i 67 more rows
…
